<?xml version="1.0" standalone="no"?>
<!DOCTYPE svg PUBLIC "-//W3C//DTD SVG 20010904//EN"
 "http://www.w3.org/TR/2001/REC-SVG-20010904/DTD/svg10.dtd">
<svg version="1.0" xmlns="http://www.w3.org/2000/svg"
 width="700.000000pt" height="700.000000pt" viewBox="0 0 700.000000 700.000000"
 preserveAspectRatio="xMidYMid meet">
<metadata>
Created by potrace 1.14, written by Peter Selinger 2001-2017
</metadata>
<g transform="translate(0.000000,700.000000) scale(0.100000,-0.100000)"
fill="#000000" stroke="none">
<path d="M3477 6944 c-1 -1 -51 -5 -112 -9 -141 -9 -158 -10 -247 -25 -40 -6
-86 -14 -103 -16 -16 -3 -37 -7 -45 -9 -8 -2 -31 -7 -50 -10 -95 -16 -398
-103 -465 -134 -11 -5 -62 -25 -113 -45 -198 -77 -702 -316 -744 -353 -9 -8
-19 -10 -22 -5 -6 10 50 96 109 167 61 72 124 182 130 223 2 23 -3 52 -15 79
l-19 43 -38 -16 c-121 -51 -222 -149 -359 -349 -41 -60 -95 -137 -120 -170
-83 -112 -89 -143 -46 -233 36 -75 51 -96 87 -124 28 -22 37 -23 225 -23 107
-1 220 -4 250 -9 149 -21 323 -66 450 -118 118 -48 128 -50 135 -27 4 11 1 26
-5 34 -7 8 -25 41 -40 73 -15 33 -41 68 -56 79 -50 33 -205 100 -309 133 -145
45 -156 48 -202 55 -64 10 -56 33 25 72 58 28 162 76 405 187 31 14 85 38 120
52 34 14 80 34 102 44 120 54 480 150 650 174 137 20 219 27 370 33 207 8 216
8 335 -1 91 -7 121 -10 200 -21 19 -3 55 -7 79 -10 24 -3 47 -8 52 -10 4 -3
10 -1 14 5 3 5 1 10 -4 10 -6 0 -11 5 -11 11 0 14 37 9 163 -25 60 -16 78 -21
182 -55 126 -41 252 -93 354 -148 58 -31 134 -71 167 -88 79 -41 251 -156 330
-220 34 -27 78 -63 98 -78 20 -16 34 -32 31 -37 -3 -5 48 -62 113 -127 117
-117 163 -171 192 -223 13 -24 18 -26 38 -17 12 5 22 16 22 23 0 7 9 15 19 19
18 5 31 27 37 62 7 38 -127 213 -274 356 -209 206 -424 358 -699 496 -197 98
-470 200 -608 227 -11 2 -31 6 -45 10 -14 3 -38 7 -55 10 -16 3 -46 9 -65 14
-19 5 -59 12 -89 15 -30 4 -63 8 -73 10 -47 9 -442 26 -451 19z"/>
<path d="M3298 5805 c-2 -3 -35 -7 -73 -11 -39 -3 -72 -7 -75 -9 -3 -2 -26 -6
-50 -10 -82 -12 -244 -53 -348 -89 -695 -237 -1240 -781 -1482 -1479 -43 -125
-76 -260 -105 -434 -18 -107 -24 -438 -11 -558 13 -109 38 -249 63 -345 13
-52 26 -102 28 -110 12 -54 76 -215 129 -325 298 -621 831 -1072 1491 -1263
215 -62 393 -86 650 -86 186 0 314 11 450 40 39 9 80 17 91 20 45 9 193 54
279 85 179 65 507 249 627 351 14 13 46 39 69 58 124 101 304 298 411 450 197
280 350 652 393 950 4 24 8 47 10 50 1 3 6 41 11 85 16 154 9 521 -12 627 -2
13 -7 39 -10 58 -67 380 -242 766 -488 1070 -79 98 -262 281 -356 357 -196
157 -429 290 -661 376 -111 42 -332 101 -434 116 -38 6 -86 13 -105 17 -40 7
-485 15 -492 9z m456 -1325 c240 -61 426 -181 592 -382 71 -85 150 -244 183
-370 31 -113 33 -125 36 -258 12 -544 -387 -1006 -930 -1076 -45 -6 -253 -7
-262 -1 -4 3 -29 8 -55 11 -230 31 -495 194 -653 401 -92 121 -179 311 -199
435 -3 19 -8 46 -11 60 -11 46 -8 254 4 320 80 445 415 785 861 874 103 21
326 14 434 -14z"/>
<path d="M1242 1317 c-12 -6 -22 -16 -22 -23 0 -7 -8 -15 -18 -19 -11 -3 -24
-17 -31 -32 -10 -22 -8 -33 13 -77 62 -125 282 -358 491 -517 343 -262 735
-443 1156 -533 122 -26 148 -30 344 -51 69 -8 406 -8 480 0 150 15 177 18 290
36 98 15 117 18 190 35 226 52 478 141 775 275 135 60 488 238 495 249 4 6 10
8 15 5 13 -8 -24 -67 -97 -158 -34 -43 -81 -111 -103 -152 -44 -80 -47 -113
-15 -175 15 -29 15 -29 52 -14 118 50 223 151 355 344 36 52 95 137 132 189
50 71 66 102 66 128 0 33 -57 163 -82 186 -60 55 -46 52 -257 52 -108 1 -221
4 -251 9 -161 22 -325 67 -480 130 -82 33 -110 36 -110 12 0 -13 66 -144 82
-164 13 -16 142 -82 221 -113 69 -28 239 -79 305 -91 73 -14 69 -35 -16 -75
-327 -155 -697 -317 -760 -332 -20 -5 -68 -19 -107 -31 -75 -23 -286 -74 -357
-85 -23 -4 -50 -8 -58 -9 -8 -2 -44 -6 -80 -11 -36 -4 -74 -9 -85 -11 -23 -5
-303 -16 -390 -16 -67 0 -221 10 -275 18 -19 2 -53 7 -75 9 -22 3 -58 8 -80
11 -63 9 -76 8 -55 -6 8 -5 11 -12 7 -16 -22 -23 -498 126 -618 194 -19 10
-90 47 -159 82 -103 53 -259 146 -305 182 -5 5 -55 42 -110 83 -115 86 -136
104 -133 119 1 6 -52 65 -118 131 -66 66 -138 147 -160 181 -36 54 -42 59 -62
51z"/>
</g>
</svg>
